Intro to Machine Learning with R
…
---

# Hyperparameter Profiling - Function Style

```
## # A tibble: 320 x 8
##     mtry trees splitrule min_n sampid        splits             id      id2  
##    <dbl> <dbl> <chr>     <dbl> <chr>         <list>             <chr>   <chr>
##  1     1   100 variance      2 Repeat1Fold1- <split [2.5K/628]> Repeat1 Fold1
##  2     1   100 variance      2 Repeat1Fold2- <split [2.5K/627]> Repeat1 Fold2
##  3     1   100 variance      2 Repeat1Fold3- <split [2.5K/627]> Repeat1 Fold3
##  4     1   100 variance      2 Repeat1Fold4- <split [2.5K/626]> Repeat1 Fold4
##  5     1   100 variance      2 Repeat1Fold5- <split [2.5K/625]> Repeat1 Fold5
##  6     1   100 variance      2 Repeat2Fold1- <split [2.5K/628]> Repeat2 Fold1
##  7     1   100 variance      2 Repeat2Fold2- <split [2.5K/627]> Repeat2 Fold2
##  8     1   100 variance      2 Repeat2Fold3- <split [2.5K/627]> Repeat2 Fold3
##  9     1   100 variance      2 Repeat2Fold4- <split [2.5K/626]> Repeat2 Fold4
## 10     1   100 variance      2 Repeat2Fold5- <split [2.5K/625]> Repeat2 Fold5
## # … with 310 more rows
```
…
